{
	"name": "Dog",
	"author": "unknown",
	"width": 10,
	"height": 10,
	"grid": [
		[
			{
				"correctState": "unmarked",
				"actualState": "unmarked"
			},
			{
				"correctState": "unmarked",
				"actualState": "unmarked"
			},
			{
				"correctState": "unmarked",
				"actualState": "unmarked"
			},
			{
				"correctState": "unmarked",
				"actualState": "unmarked"
			},
			{
				"correctState": "unmarked",
				"actualState": "unmarked"
			},
			{
				"correctState": "marked",
				"actualState": "unmarked"
			},
			{
				"correctState": "marked",
				"actualState": "unmarked"
			},
			{
				"correctState": "marked",
				"actualState": "unmarked"
			},
			{
				"correctState": "marked",
				"actualState": "unmarked"
			},
			{
				"correctState": "unmarked",
				"actualState": "unmarked"
			}
		],
		[
			{
				"correctState": "unmarked",
				"actualState": "unmarked"
			},
			{
				"correctState": "unmarked",
				"actualState": "unmarked"
			},
			{
				"correctState": "unmarked",
				"actualState": "unmarked"
			},
			{
				"correctState": "marked",
				"actualState": "unmarked"
			},
			{
				"correctState": "marked",
				"actualState": "unmarked"
			},
			{
				"correctState": "unmarked",
				"actualState": "unmarked"
			},
			{
				"correctState": "unmarked",
				"actualState": "unmarked"
			},
			{
				"correctState": "unmarked",
				"actualState": "unmarked"
			},
			{
				"correctState": "marked",
				"actualState": "unmarked"
			},
			{
				"correctState": "unmarked",
				"actualState": "unmarked"
			}
		],
		[
			{
				"correctState": "unmarked",
				"actualState": "unmarked"
			},
			{
				"correctState": "unmarked",
				"actualState": "unmarked"
			},
			{
				"correctState": "unmarked",
				"actualState": "unmarked"
			},
			{
				"correctState": "marked",
				"actualState": "unmarked"
			},
			{
				"correctState": "unmarked",
				"actualState": "unmarked"
			},
			{
				"correctState": "unmarked",
				"actualState": "unmarked"
			},
			{
				"correctState": "unmarked",
				"actualState": "unmarked"
			},
			{
				"correctState": "unmarked",
				"actualState": "unmarked"
			},
			{
				"correctState": "marked",
				"actualState": "unmarked"
			},
			{
				"correctState": "unmarked",
				"actualState": "unmarked"
			}
		],
		[
			{
				"correctState": "unmarked",
				"actualState": "unmarked"
			},
			{
				"correctState": "unmarked",
				"actualState": "unmarked"
			},
			{
				"correctState": "marked",
				"actualState": "unmarked"
			},
			{
				"correctState": "unmarked",
				"actualState": "unmarked"
			},
			{
				"correctState": "unmarked",
				"actualState": "unmarked"
			},
			{
				"correctState": "unmarked",
				"actualState": "unmarked"
			},
			{
				"correctState": "marked",
				"actualState": "unmarked"
			},
			{
				"correctState": "marked",
				"actualState": "unmarked"
			},
			{
				"correctState": "marked",
				"actualState": "unmarked"
			},
			{
				"correctState": "marked",
				"actualState": "unmarked"
			}
		],
		[
			{
				"correctState": "unmarked",
				"actualState": "unmarked"
			},
			{
				"correctState": "unmarked",
				"actualState": "unmarked"
			},
			{
				"correctState": "marked",
				"actualState": "unmarked"
			},
			{
				"correctState": "unmarked",
				"actualState": "unmarked"
			},
			{
				"correctState": "marked",
				"actualState": "unmarked"
			},
			{
				"correctState": "unmarked",
				"actualState": "unmarked"
			},
			{
				"correctState": "marked",
				"actualState": "unmarked"
			},
			{
				"correctState": "unmarked",
				"actualState": "unmarked"
			},
			{
				"correctState": "unmarked",
				"actualState": "unmarked"
			},
			{
				"correctState": "marked",
				"actualState": "unmarked"
			}
		],
		[
			{
				"correctState": "marked",
				"actualState": "unmarked"
			},
			{
				"correctState": "marked",
				"actualState": "unmarked"
			},
			{
				"correctState": "unmarked",
				"actualState": "unmarked"
			},
			{
				"correctState": "unmarked",
				"actualState": "unmarked"
			},
			{
				"correctState": "marked",
				"actualState": "unmarked"
			},
			{
				"correctState": "unmarked",
				"actualState": "unmarked"
			},
			{
				"correctState": "marked",
				"actualState": "unmarked"
			},
			{
				"correctState": "unmarked",
				"actualState": "unmarked"
			},
			{
				"correctState": "unmarked",
				"actualState": "unmarked"
			},
			{
				"correctState": "marked",
				"actualState": "unmarked"
			}
		],
		[
			{
				"correctState": "marked",
				"actualState": "unmarked"
			},
			{
				"correctState": "marked",
				"actualState": "unmarked"
			},
			{
				"correctState": "unmarked",
				"actualState": "unmarked"
			},
			{
				"correctState": "unmarked",
				"actualState": "unmarked"
			},
			{
				"correctState": "unmarked",
				"actualState": "unmarked"
			},
			{
				"correctState": "unmarked",
				"actualState": "unmarked"
			},
			{
				"correctState": "marked",
				"actualState": "unmarked"
			},
			{
				"correctState": "unmarked",
				"actualState": "unmarked"
			},
			{
				"correctState": "unmarked",
				"actualState": "unmarked"
			},
			{
				"correctState": "marked",
				"actualState": "unmarked"
			}
		],
		[
			{
				"correctState": "marked",
				"actualState": "unmarked"
			},
			{
				"correctState": "unmarked",
				"actualState": "unmarked"
			},
			{
				"correctState": "unmarked",
				"actualState": "unmarked"
			},
			{
				"correctState": "unmarked",
				"actualState": "unmarked"
			},
			{
				"correctState": "unmarked",
				"actualState": "unmarked"
			},
			{
				"correctState": "unmarked",
				"actualState": "unmarked"
			},
			{
				"correctState": "unmarked",
				"actualState": "unmarked"
			},
			{
				"correctState": "marked",
				"actualState": "unmarked"
			},
			{
				"correctState": "marked",
				"actualState": "unmarked"
			},
			{
				"correctState": "unmarked",
				"actualState": "unmarked"
			}
		],
		[
			{
				"correctState": "unmarked",
				"actualState": "unmarked"
			},
			{
				"correctState": "marked",
				"actualState": "unmarked"
			},
			{
				"correctState": "marked",
				"actualState": "unmarked"
			},
			{
				"correctState": "unmarked",
				"actualState": "unmarked"
			},
			{
				"correctState": "unmarked",
				"actualState": "unmarked"
			},
			{
				"correctState": "marked",
				"actualState": "unmarked"
			},
			{
				"correctState": "marked",
				"actualState": "unmarked"
			},
			{
				"correctState": "marked",
				"actualState": "unmarked"
			},
			{
				"correctState": "unmarked",
				"actualState": "unmarked"
			},
			{
				"correctState": "unmarked",
				"actualState": "unmarked"
			}
		],
		[
			{
				"correctState": "unmarked",
				"actualState": "unmarked"
			},
			{
				"correctState": "unmarked",
				"actualState": "unmarked"
			},
			{
				"correctState": "marked",
				"actualState": "unmarked"
			},
			{
				"correctState": "marked",
				"actualState": "unmarked"
			},
			{
				"correctState": "marked",
				"actualState": "unmarked"
			},
			{
				"correctState": "unmarked",
				"actualState": "unmarked"
			},
			{
				"correctState": "unmarked",
				"actualState": "unmarked"
			},
			{
				"correctState": "unmarked",
				"actualState": "unmarked"
			},
			{
				"correctState": "unmarked",
				"actualState": "unmarked"
			},
			{
				"correctState": "unmarked",
				"actualState": "unmarked"
			}
		]
	]
	
}